(export (version D)
  (design
    (source "C:\\Users\\Tyrone Kawome\\Dropbox\\My PC (DESKTOP-BF4A20J)\\Desktop\\3088-project-team23\\3088-project-team23\\Assignment3.1.sch")
    (date "6/8/2021 2:14:24 AM")
    (tool "Eeschema (5.1.10)-1")
    (sheet (number 1) (name /) (tstamps /)
      (title_block
        (title "Raspberry Pi Zero (W) uHAT Template Board")
        (company)
        (rev 1.0)
        (date 2019-02-28)
        (source Assignment3.1.sch)
        (comment (number 1) (value "This Schematic is licensed under MIT Open Source License."))
        (comment (number 2) (value ""))
        (comment (number 3) (value ""))
        (comment (number 4) (value ""))))
    (sheet (number 2) (name /Sheet60BBDBC3/) (tstamps /60BBDBC4/)
      (title_block
        (title)
        (company)
        (rev)
        (date)
        (source Amplifier_Circuit.sch)
        (comment (number 1) (value ""))
        (comment (number 2) (value ""))
        (comment (number 3) (value ""))
        (comment (number 4) (value ""))))
    (sheet (number 3) (name /Status_LEDs/) (tstamps /60B95736/)
      (title_block
        (title "Status LED")
        (company "Team 23")
        (rev 1)
        (date "3 June 2021")
        (source Status_LEDs.sch)
        (comment (number 1) (value ""))
        (comment (number 2) (value ""))
        (comment (number 3) (value ""))
        (comment (number 4) (value ""))))
    (sheet (number 4) (name /Switching_Regulator/) (tstamps /60BA64D8/)
      (title_block
        (title Switching_Regulator)
        (company "Team 23")
        (rev 1)
        (date "3 June 2021")
        (source Switching_Regulator.sch)
        (comment (number 1) (value ""))
        (comment (number 2) (value ""))
        (comment (number 3) (value ""))
        (comment (number 4) (value "")))))
  (components
    (comp (ref J1)
      (value GPIO_CONNECTOR)
      (footprint lib:PinSocket_2x20_P2.54mm_Vertical_Centered_Anchor)
      (datasheet ~)
      (libsource (lib Connector_Generic) (part Conn_02x20_Odd_Even) (description "Generic connector, double row, 02x20, odd/even pin numbering scheme (row 1 odd numbers, row 2 even numbers), script generated (kicad-library-utils/schlib/autogen/connector/)"))
      (sheetpath (names /) (tstamps /))
      (tstamp 5C77771F))
    (comp (ref H1)
      (value MountingHole)
      (footprint lib:MountingHole_2.7mm_M2.5_uHAT_RPi)
      (datasheet ~)
      (libsource (lib Mechanical) (part MountingHole) (description "Mounting Hole without connection"))
      (sheetpath (names /) (tstamps /))
      (tstamp 5C7C4C81))
    (comp (ref H2)
      (value MountingHole)
      (footprint lib:MountingHole_2.7mm_M2.5_uHAT_RPi)
      (datasheet ~)
      (libsource (lib Mechanical) (part MountingHole) (description "Mounting Hole without connection"))
      (sheetpath (names /) (tstamps /))
      (tstamp 5C7C7FBC))
    (comp (ref H3)
      (value MountingHole)
      (footprint lib:MountingHole_2.7mm_M2.5_uHAT_RPi)
      (datasheet ~)
      (libsource (lib Mechanical) (part MountingHole) (description "Mounting Hole without connection"))
      (sheetpath (names /) (tstamps /))
      (tstamp 5C7C8014))
    (comp (ref H4)
      (value MountingHole)
      (footprint lib:MountingHole_2.7mm_M2.5_uHAT_RPi)
      (datasheet ~)
      (libsource (lib Mechanical) (part MountingHole) (description "Mounting Hole without connection"))
      (sheetpath (names /) (tstamps /))
      (tstamp 5C7C8030))
    (comp (ref U1)
      (value LTC1157CS8PBF)
      (footprint lib:SO-8_S)
      (fields
        (field (name MANUFACTURER_PART_NUMBER) ltc1157cs8#pbf)
        (field (name VENDOR) "Linear Technology"))
      (libsource (lib Assignment3.1-rescue) (part LTC1157CS8PBF-LTC1157CS8PBF-Assignment3.1-rescue) (description ""))
      (sheetpath (names /Sheet60BBDBC3/) (tstamps /60BBDBC4/))
      (tstamp 60BBE18C))
    (comp (ref Q2)
      (value Si4532DY)
      (footprint Package_SO:SOIC-8_3.9x4.9mm_P1.27mm)
      (datasheet https://www.onsemi.com/pub/Collateral/SI4532DY-D.PDF)
      (libsource (lib Transistor_FET) (part Si4532DY) (description "3.9A Id, 30V Vds, Dual N and P Channel MOSFET, 65mOhm Ron, 10V Vgs, SO8L"))
      (sheetpath (names /Sheet60BBDBC3/) (tstamps /60BBDBC4/))
      (tstamp 60BBF6F3))
    (comp (ref R11)
      (value 10)
      (footprint Resistor_THT:R_Axial_DIN0204_L3.6mm_D1.6mm_P5.08mm_Horizontal)
      (datasheet ~)
      (libsource (lib Device) (part R) (description Resistor))
      (sheetpath (names /Sheet60BBDBC3/) (tstamps /60BBDBC4/))
      (tstamp 60BC1C45))
    (comp (ref U2)
      (value OPA188xxD)
      (footprint Package_SO:SOIC-8_3.9x4.9mm_P1.27mm)
      (datasheet http://www.ti.com/lit/ds/symlink/opa188.pdf)
      (libsource (lib Amplifier_Operational) (part OPA188xxD) (description "Precision, Low-Noise, Rail-to-Rail Output, 36-V, Zero-Drift Operational Amplifier, SOIC-8"))
      (sheetpath (names /Sheet60BBDBC3/) (tstamps /60BBDBC4/))
      (tstamp 60BC2705))
    (comp (ref R5)
      (value 1000)
      (footprint Resistor_THT:R_Axial_DIN0204_L3.6mm_D1.6mm_P5.08mm_Horizontal)
      (datasheet ~)
      (libsource (lib Device) (part R) (description Resistor))
      (sheetpath (names /Status_LEDs/) (tstamps /60B95736/))
      (tstamp 60B9591D))
    (comp (ref R1)
      (value 10)
      (footprint Resistor_THT:R_Axial_DIN0204_L3.6mm_D1.6mm_P5.08mm_Horizontal)
      (datasheet ~)
      (libsource (lib Device) (part R) (description Resistor))
      (sheetpath (names /Status_LEDs/) (tstamps /60B95736/))
      (tstamp 60B9662E))
    (comp (ref R2)
      (value 1000)
      (footprint Resistor_THT:R_Axial_DIN0204_L3.6mm_D1.6mm_P5.08mm_Horizontal)
      (datasheet ~)
      (libsource (lib Device) (part R) (description Resistor))
      (sheetpath (names /Status_LEDs/) (tstamps /60B95736/))
      (tstamp 60B96AF8))
    (comp (ref R3)
      (value 1000)
      (footprint Resistor_THT:R_Axial_DIN0204_L3.6mm_D1.6mm_P5.08mm_Horizontal)
      (datasheet ~)
      (libsource (lib Device) (part R) (description Resistor))
      (sheetpath (names /Status_LEDs/) (tstamps /60B95736/))
      (tstamp 60B96FD3))
    (comp (ref D5)
      (value BZX84Cxx)
      (footprint Diode_SMD:D_SOT-23_ANK)
      (datasheet https://diotec.com/tl_files/diotec/files/pdf/datasheets/bzx84c2v4.pdf)
      (libsource (lib Diode) (part BZX84Cxx) (description "300mW Zener Diode, SOT-23"))
      (sheetpath (names /Status_LEDs/) (tstamps /60B95736/))
      (tstamp 60B9754C))
    (comp (ref D8)
      (value LED)
      (footprint LED_THT:LED_D3.0mm_IRBlack)
      (datasheet ~)
      (libsource (lib Device) (part LED) (description "Light emitting diode"))
      (sheetpath (names /Status_LEDs/) (tstamps /60B95736/))
      (tstamp 60B97F11))
    (comp (ref D7)
      (value LED)
      (footprint LED_THT:LED_D3.0mm_IRBlack)
      (datasheet ~)
      (libsource (lib Device) (part LED) (description "Light emitting diode"))
      (sheetpath (names /Status_LEDs/) (tstamps /60B95736/))
      (tstamp 60B98E12))
    (comp (ref D6)
      (value LED)
      (footprint LED_THT:LED_D3.0mm_IRBlack)
      (datasheet ~)
      (libsource (lib Device) (part LED) (description "Light emitting diode"))
      (sheetpath (names /Status_LEDs/) (tstamps /60B95736/))
      (tstamp 60B99743))
    (comp (ref D4)
      (value D_Zener)
      (footprint Diode_THT:D_DO-34_SOD68_P2.54mm_Vertical_AnodeUp)
      (datasheet ~)
      (libsource (lib Device) (part D_Zener) (description "Zener diode"))
      (sheetpath (names /Status_LEDs/) (tstamps /60B95736/))
      (tstamp 60B9B440))
    (comp (ref D3)
      (value D_Zener)
      (footprint Diode_THT:D_DO-34_SOD68_P2.54mm_Vertical_AnodeUp)
      (datasheet ~)
      (libsource (lib Device) (part D_Zener) (description "Zener diode"))
      (sheetpath (names /Status_LEDs/) (tstamps /60B95736/))
      (tstamp 60B9BF81))
    (comp (ref D1)
      (value LED)
      (footprint LED_THT:LED_D3.0mm_IRBlack)
      (datasheet ~)
      (libsource (lib Device) (part LED) (description "Light emitting diode"))
      (sheetpath (names /Status_LEDs/) (tstamps /60B95736/))
      (tstamp 60B9CC9C))
    (comp (ref R4)
      (value 1000)
      (footprint Resistor_THT:R_Axial_DIN0204_L3.6mm_D1.6mm_P5.08mm_Horizontal)
      (datasheet ~)
      (libsource (lib Device) (part R) (description Resistor))
      (sheetpath (names /Status_LEDs/) (tstamps /60B95736/))
      (tstamp 60B9D9ED))
    (comp (ref D2)
      (value LED)
      (footprint LED_THT:LED_D3.0mm_IRBlack)
      (datasheet ~)
      (libsource (lib Device) (part LED) (description "Light emitting diode"))
      (sheetpath (names /Status_LEDs/) (tstamps /60B95736/))
      (tstamp 60B9DF3D))
    (comp (ref IC1)
      (value LT1076*)
      (footprint lib2:DDPAK-5_Q)
      (libsource (lib Assignment3.1-rescue) (part LT1076*-LT1076_-Assignment3.1-rescue) (description ""))
      (sheetpath (names /Switching_Regulator/) (tstamps /60BA64D8/))
      (tstamp 60BA8F6F))
    (comp (ref L1)
      (value 100u)
      (footprint Inductor_THT:L_Axial_L5.3mm_D2.2mm_P7.62mm_Horizontal_Vishay_IM-1)
      (datasheet ~)
      (libsource (lib pspice) (part INDUCTOR) (description "Inductor symbol for simulation only"))
      (sheetpath (names /Switching_Regulator/) (tstamps /60BA64D8/))
      (tstamp 60BAA7A4))
    (comp (ref D9)
      (value DIODE)
      (footprint Diode_THT:D_DO-15_P2.54mm_Vertical_AnodeUp)
      (datasheet ~)
      (libsource (lib pspice) (part DIODE) (description "Diode symbol for simulation only. Pin order incompatible with official kicad footprints"))
      (sheetpath (names /Switching_Regulator/) (tstamps /60BA64D8/))
      (tstamp 60BABCBD))
    (comp (ref R8)
      (value 2800)
      (footprint Resistor_THT:R_Axial_DIN0204_L3.6mm_D1.6mm_P5.08mm_Horizontal)
      (datasheet ~)
      (libsource (lib Device) (part R) (description Resistor))
      (sheetpath (names /Switching_Regulator/) (tstamps /60BA64D8/))
      (tstamp 60BACC63))
    (comp (ref R9)
      (value 2210)
      (footprint Resistor_THT:R_Axial_DIN0204_L3.6mm_D1.6mm_P5.08mm_Horizontal)
      (datasheet ~)
      (libsource (lib Device) (part R) (description Resistor))
      (sheetpath (names /Switching_Regulator/) (tstamps /60BA64D8/))
      (tstamp 60BAD8AD))
    (comp (ref C1)
      (value 500u)
      (footprint Capacitor_THT:CP_Radial_Tantal_D4.5mm_P2.50mm)
      (datasheet ~)
      (libsource (lib pspice) (part CAP) (description "Capacitor symbol for simulation only"))
      (sheetpath (names /Switching_Regulator/) (tstamps /60BA64D8/))
      (tstamp 60BAEABE))
    (comp (ref R6)
      (value 1700)
      (footprint Resistor_THT:R_Axial_DIN0204_L3.6mm_D1.6mm_P5.08mm_Horizontal)
      (datasheet ~)
      (libsource (lib Device) (part R) (description Resistor))
      (sheetpath (names /Switching_Regulator/) (tstamps /60BA64D8/))
      (tstamp 60BB01DB))
    (comp (ref R7)
      (value 3300)
      (footprint Resistor_THT:R_Axial_DIN0204_L3.6mm_D1.6mm_P5.08mm_Horizontal)
      (datasheet ~)
      (libsource (lib Device) (part R) (description Resistor))
      (sheetpath (names /Switching_Regulator/) (tstamps /60BA64D8/))
      (tstamp 60BB0E2F))
    (comp (ref C2)
      (value 200u)
      (footprint Capacitor_THT:CP_Radial_D4.0mm_P1.50mm)
      (datasheet ~)
      (libsource (lib pspice) (part CAP) (description "Capacitor symbol for simulation only"))
      (sheetpath (names /Switching_Regulator/) (tstamps /60BA64D8/))
      (tstamp 60BB4435))
    (comp (ref R10)
      (value 2700)
      (footprint Resistor_THT:R_Axial_DIN0204_L3.6mm_D1.6mm_P5.08mm_Horizontal)
      (datasheet ~)
      (libsource (lib Device) (part R) (description Resistor))
      (sheetpath (names /Switching_Regulator/) (tstamps /60BA64D8/))
      (tstamp 60BB5A0F))
    (comp (ref C3)
      (value 0.01u)
      (footprint Capacitor_THT:CP_Radial_D4.0mm_P1.50mm)
      (datasheet ~)
      (libsource (lib pspice) (part CAP) (description "Capacitor symbol for simulation only"))
      (sheetpath (names /Switching_Regulator/) (tstamps /60BA64D8/))
      (tstamp 60BB65DD))
    (comp (ref J2)
      (value USB_B)
      (footprint Connector_USB:USB3_A_Molex_48393-001)
      (datasheet " ~")
      (libsource (lib Connector) (part USB_B) (description "USB Type B connector"))
      (sheetpath (names /Switching_Regulator/) (tstamps /60BA64D8/))
      (tstamp 60BCAD60)))
  (libparts
    (libpart (lib Amplifier_Operational) (part OPA333xxD)
      (aliases
        (alias OPA340UA)
        (alias OPA376xxD)
        (alias MCP6L91RT-ESN)
        (alias TSV911IDT)
        (alias THS4631D)
        (alias OPA330xxD)
        (alias MCP601-xSN)
        (alias LM6171D)
        (alias OPA356xxD)
        (alias AD8001AR)
        (alias LMH6702MA)
        (alias LMH6609MA)
        (alias OPA188xxD)
        (alias TLV2371D)
        (alias OPA842xD)
        (alias OPA843xD)
        (alias OPA846xD)
        (alias OPA197xD)
        (alias OPA196xD)
        (alias OPA365xxD))
      (description "Single 1.8V, microPower, CMOS Operational Amplifiers, Zero-Drift Series, SOIC-8")
      (docs http://www.ti.com/lit/ds/symlink/opa333.pdf)
      (footprints
        (fp SOIC*3.9x4.9mm*P1.27mm*))
      (fields
        (field (name Reference) U)
        (field (name Value) OPA333xxD)
        (field (name Footprint) Package_SO:SOIC-8_3.9x4.9mm_P1.27mm))
      (pins
        (pin (num 1) (name NC) (type NotConnected))
        (pin (num 2) (name -) (type input))
        (pin (num 3) (name +) (type input))
        (pin (num 4) (name V-) (type power_in))
        (pin (num 5) (name NC) (type NotConnected))
        (pin (num 6) (name ~) (type output))
        (pin (num 7) (name V+) (type power_in))
        (pin (num 8) (name NC) (type NotConnected))))
    (libpart (lib Assignment3.1-rescue) (part LT1076*-LT1076_-Assignment3.1-rescue)
      (footprints
        (fp Q5-DD)
        (fp TO220-5))
      (fields
        (field (name Reference) IC)
        (field (name Value) LT1076*-LT1076_-Assignment3.1-rescue))
      (pins
        (pin (num 1) (name VFB) (type passive))
        (pin (num 2) (name VC) (type passive))
        (pin (num 3) (name GND) (type power_in))
        (pin (num 4) (name VSW) (type passive))
        (pin (num 5) (name VIN) (type passive))))
    (libpart (lib Assignment3.1-rescue) (part LTC1157CS8PBF-LTC1157CS8PBF-Assignment3.1-rescue)
      (fields
        (field (name Reference) U)
        (field (name Value) LTC1157CS8PBF-LTC1157CS8PBF-Assignment3.1-rescue)
        (field (name Footprint) SO-8_S)
        (field (name VENDOR) "Linear Technology")
        (field (name MANUFACTURER_PART_NUMBER) ltc1157cs8#pbf))
      (pins
        (pin (num 1) (name NC_2) (type NotConnected))
        (pin (num 2) (name GATE1) (type passive))
        (pin (num 3) (name GND) (type power_in))
        (pin (num 4) (name IN1) (type input))
        (pin (num 5) (name IN2) (type input))
        (pin (num 6) (name VS) (type power_in))
        (pin (num 7) (name GATE2) (type passive))
        (pin (num 8) (name NC) (type NotConnected))))
    (libpart (lib Connector) (part USB_B)
      (description "USB Type B connector")
      (docs " ~")
      (footprints
        (fp USB*))
      (fields
        (field (name Reference) J)
        (field (name Value) USB_B))
      (pins
        (pin (num 1) (name VBUS) (type power_out))
        (pin (num 2) (name D-) (type BiDi))
        (pin (num 3) (name D+) (type BiDi))
        (pin (num 4) (name GND) (type power_out))
        (pin (num 5) (name Shield) (type passive))))
    (libpart (lib Connector_Generic) (part Conn_02x20_Odd_Even)
      (description "Generic connector, double row, 02x20, odd/even pin numbering scheme (row 1 odd numbers, row 2 even numbers), script generated (kicad-library-utils/schlib/autogen/connector/)")
      (docs ~)
      (footprints
        (fp Connector*:*_2x??_*))
      (fields
        (field (name Reference) J)
        (field (name Value) Conn_02x20_Odd_Even))
      (pins
        (pin (num 1) (name Pin_1) (type passive))
        (pin (num 2) (name Pin_2) (type passive))
        (pin (num 3) (name Pin_3) (type passive))
        (pin (num 4) (name Pin_4) (type passive))
        (pin (num 5) (name Pin_5) (type passive))
        (pin (num 6) (name Pin_6) (type passive))
        (pin (num 7) (name Pin_7) (type passive))
        (pin (num 8) (name Pin_8) (type passive))
        (pin (num 9) (name Pin_9) (type passive))
        (pin (num 10) (name Pin_10) (type passive))
        (pin (num 11) (name Pin_11) (type passive))
        (pin (num 12) (name Pin_12) (type passive))
        (pin (num 13) (name Pin_13) (type passive))
        (pin (num 14) (name Pin_14) (type passive))
        (pin (num 15) (name Pin_15) (type passive))
        (pin (num 16) (name Pin_16) (type passive))
        (pin (num 17) (name Pin_17) (type passive))
        (pin (num 18) (name Pin_18) (type passive))
        (pin (num 19) (name Pin_19) (type passive))
        (pin (num 20) (name Pin_20) (type passive))
        (pin (num 21) (name Pin_21) (type passive))
        (pin (num 22) (name Pin_22) (type passive))
        (pin (num 23) (name Pin_23) (type passive))
        (pin (num 24) (name Pin_24) (type passive))
        (pin (num 25) (name Pin_25) (type passive))
        (pin (num 26) (name Pin_26) (type passive))
        (pin (num 27) (name Pin_27) (type passive))
        (pin (num 28) (name Pin_28) (type passive))
        (pin (num 29) (name Pin_29) (type passive))
        (pin (num 30) (name Pin_30) (type passive))
        (pin (num 31) (name Pin_31) (type passive))
        (pin (num 32) (name Pin_32) (type passive))
        (pin (num 33) (name Pin_33) (type passive))
        (pin (num 34) (name Pin_34) (type passive))
        (pin (num 35) (name Pin_35) (type passive))
        (pin (num 36) (name Pin_36) (type passive))
        (pin (num 37) (name Pin_37) (type passive))
        (pin (num 38) (name Pin_38) (type passive))
        (pin (num 39) (name Pin_39) (type passive))
        (pin (num 40) (name Pin_40) (type passive))))
    (libpart (lib Device) (part D_Zener)
      (description "Zener diode")
      (docs ~)
      (footprints
        (fp TO-???*)
        (fp *_Diode_*)
        (fp *SingleDiode*)
        (fp D_*))
      (fields
        (field (name Reference) D)
        (field (name Value) D_Zener))
      (pins
        (pin (num 1) (name K) (type passive))
        (pin (num 2) (name A) (type passive))))
    (libpart (lib Device) (part LED)
      (description "Light emitting diode")
      (docs ~)
      (footprints
        (fp LED*)
        (fp LED_SMD:*)
        (fp LED_THT:*))
      (fields
        (field (name Reference) D)
        (field (name Value) LED))
      (pins
        (pin (num 1) (name K) (type passive))
        (pin (num 2) (name A) (type passive))))
    (libpart (lib Device) (part R)
      (description Resistor)
      (docs ~)
      (footprints
        (fp R_*))
      (fields
        (field (name Reference) R)
        (field (name Value) R))
      (pins
        (pin (num 1) (name ~) (type passive))
        (pin (num 2) (name ~) (type passive))))
    (libpart (lib Diode) (part BZX84Cxx)
      (description "300mW Zener Diode, SOT-23")
      (docs https://diotec.com/tl_files/diotec/files/pdf/datasheets/bzx84c2v4.pdf)
      (footprints
        (fp D*SOT?23*ANK*))
      (fields
        (field (name Reference) D)
        (field (name Value) BZX84Cxx)
        (field (name Footprint) Diode_SMD:D_SOT-23_ANK))
      (pins
        (pin (num 1) (name K) (type passive))
        (pin (num 2) (name A) (type passive))))
    (libpart (lib Mechanical) (part MountingHole)
      (description "Mounting Hole without connection")
      (docs ~)
      (footprints
        (fp MountingHole*))
      (fields
        (field (name Reference) H)
        (field (name Value) MountingHole)))
    (libpart (lib Transistor_FET) (part IRF7309IPBF)
      (aliases
        (alias FDS4559)
        (alias FDS4897AC)
        (alias FDS4897C)
        (alias FDS8960C)
        (alias FDS9934C)
        (alias IRF7343PBF)
        (alias Si4532DY)
        (alias Si4542DY))
      (description "3A Id, 30V Vds, Dual HEXFET MOSFET, SO-8")
      (docs http://www.irf.com/product-info/datasheets/data/irf7309ipbf.pdf)
      (footprints
        (fp SOIC*3.9x4.9mm*P1.27mm*))
      (fields
        (field (name Reference) Q)
        (field (name Value) IRF7309IPBF)
        (field (name Footprint) Package_SO:SOIC-8_3.9x4.9mm_P1.27mm))
      (pins
        (pin (num 1) (name S) (type passive))
        (pin (num 2) (name G) (type input))
        (pin (num 3) (name 1) (type passive))
        (pin (num 4) (name G) (type input))
        (pin (num 5) (name D) (type passive))
        (pin (num 6) (name D) (type passive))
        (pin (num 7) (name D) (type passive))
        (pin (num 8) (name D) (type passive))))
    (libpart (lib pspice) (part CAP)
      (aliases
        (alias C))
      (description "Capacitor symbol for simulation only")
      (docs ~)
      (fields
        (field (name Reference) C)
        (field (name Value) CAP))
      (pins
        (pin (num 1) (name ~) (type passive))
        (pin (num 2) (name ~) (type passive))))
    (libpart (lib pspice) (part DIODE)
      (description "Diode symbol for simulation only. Pin order incompatible with official kicad footprints")
      (docs ~)
      (fields
        (field (name Reference) D)
        (field (name Value) DIODE))
      (pins
        (pin (num 1) (name K) (type input))
        (pin (num 2) (name A) (type input))))
    (libpart (lib pspice) (part INDUCTOR)
      (description "Inductor symbol for simulation only")
      (docs ~)
      (fields
        (field (name Reference) L)
        (field (name Value) INDUCTOR))
      (pins
        (pin (num 1) (name 1) (type input))
        (pin (num 2) (name 2) (type input)))))
  (libraries
    (library (logical Amplifier_Operational)
      (uri "C:\\Program Files\\KiCad\\share\\kicad\\library/Amplifier_Operational.lib"))
    (library (logical Assignment3.1-rescue)
      (uri "C:\\Users\\Tyrone Kawome\\Dropbox\\My PC (DESKTOP-BF4A20J)\\Desktop\\3088-project-team23\\3088-project-team23/Assignment3.1-rescue.lib"))
    (library (logical Connector)
      (uri "C:\\Program Files\\KiCad\\share\\kicad\\library/Connector.lib"))
    (library (logical Connector_Generic)
      (uri "C:\\Program Files\\KiCad\\share\\kicad\\library/Connector_Generic.lib"))
    (library (logical Device)
      (uri "C:\\Program Files\\KiCad\\share\\kicad\\library/Device.lib"))
    (library (logical Diode)
      (uri "C:\\Program Files\\KiCad\\share\\kicad\\library/Diode.lib"))
    (library (logical Mechanical)
      (uri "C:\\Program Files\\KiCad\\share\\kicad\\library/Mechanical.lib"))
    (library (logical Transistor_FET)
      (uri "C:\\Program Files\\KiCad\\share\\kicad\\library/Transistor_FET.lib"))
    (library (logical pspice)
      (uri "C:\\Program Files\\KiCad\\share\\kicad\\library/pspice.lib")))
  (nets
    (net (code 1) (name /GPIO14_TXD0)
      (node (ref J1) (pin 8)))
    (net (code 2) (name /GPIO15_RXD0)
      (node (ref J1) (pin 10)))
    (net (code 3) (name /GPIO18_GEN1)
      (node (ref J1) (pin 12)))
    (net (code 4) (name /GPIO23_GEN4)
      (node (ref J1) (pin 16)))
    (net (code 5) (name /GPIO24_GEN5)
      (node (ref J1) (pin 18)))
    (net (code 6) (name /GPIO25_GEN6)
      (node (ref J1) (pin 22)))
    (net (code 7) (name /GPIO8_SPI_CE0_N)
      (node (ref J1) (pin 24)))
    (net (code 8) (name /GPIO7_SPI_CE1_N)
      (node (ref J1) (pin 26)))
    (net (code 9) (name /ID_SC)
      (node (ref J1) (pin 28)))
    (net (code 10) (name /GPIO12)
      (node (ref J1) (pin 32)))
    (net (code 11) (name /GPIO16)
      (node (ref U2) (pin 3))
      (node (ref J1) (pin 36)))
    (net (code 12) (name /GPIO20)
      (node (ref J1) (pin 38))
      (node (ref U2) (pin 2)))
    (net (code 13) (name /GPIO21)
      (node (ref J1) (pin 40))
      (node (ref R11) (pin 2))
      (node (ref R2) (pin 1)))
    (net (code 14) (name GND)
      (node (ref J1) (pin 34))
      (node (ref J1) (pin 30))
      (node (ref J1) (pin 20))
      (node (ref J1) (pin 14))
      (node (ref J1) (pin 25))
      (node (ref D2) (pin 1))
      (node (ref D6) (pin 1))
      (node (ref D8) (pin 1))
      (node (ref D7) (pin 1))
      (node (ref C1) (pin 2))
      (node (ref R7) (pin 2))
      (node (ref C2) (pin 2))
      (node (ref C3) (pin 2))
      (node (ref D9) (pin 1))
      (node (ref J1) (pin 39))
      (node (ref R9) (pin 2))
      (node (ref U2) (pin 4))
      (node (ref U1) (pin 3))
      (node (ref J1) (pin 6))
      (node (ref J1) (pin 9)))
    (net (code 15) (name /GPIO2_SDA1)
      (node (ref J1) (pin 3)))
    (net (code 16) (name /GPIO3_SCL1)
      (node (ref J2) (pin 1))
      (node (ref C2) (pin 1))
      (node (ref IC1) (pin 5))
      (node (ref R5) (pin 1))
      (node (ref J1) (pin 5)))
    (net (code 17) (name /GPIO4_GPIO_GCLK)
      (node (ref J1) (pin 7)))
    (net (code 18) (name /GPIO17_GEN0)
      (node (ref R3) (pin 2))
      (node (ref J1) (pin 11)))
    (net (code 19) (name /GPIO27_GEN2)
      (node (ref J1) (pin 13)))
    (net (code 20) (name /GPIO22_GEN3)
      (node (ref J1) (pin 15)))
    (net (code 21) (name /GPIO10_SPI_MOSI)
      (node (ref J1) (pin 19)))
    (net (code 22) (name /GPIO9_SPI_MISO)
      (node (ref J1) (pin 21)))
    (net (code 23) (name /GPIO11_SPI_SCLK)
      (node (ref J1) (pin 23)))
    (net (code 24) (name /ID_SD)
      (node (ref J1) (pin 27)))
    (net (code 25) (name /GPIO5)
      (node (ref U1) (pin 5))
      (node (ref U2) (pin 6))
      (node (ref D1) (pin 1))
      (node (ref R4) (pin 2))
      (node (ref J1) (pin 29)))
    (net (code 26) (name /GPIO6)
      (node (ref J1) (pin 31)))
    (net (code 27) (name /GPIO13)
      (node (ref R6) (pin 1))
      (node (ref R1) (pin 1))
      (node (ref C1) (pin 1))
      (node (ref R8) (pin 1))
      (node (ref L1) (pin 2))
      (node (ref J1) (pin 33)))
    (net (code 28) (name /GPIO19)
      (node (ref U1) (pin 4))
      (node (ref J1) (pin 35))
      (node (ref R6) (pin 2))
      (node (ref R7) (pin 1)))
    (net (code 29) (name /GPIO26)
      (node (ref J1) (pin 37)))
    (net (code 30) (name 3.3V)
      (node (ref U1) (pin 6))
      (node (ref Q2) (pin 7))
      (node (ref J1) (pin 17))
      (node (ref J1) (pin 1))
      (node (ref Q2) (pin 8))
      (node (ref U2) (pin 7)))
    (net (code 31) (name +5V)
      (node (ref J1) (pin 4))
      (node (ref J1) (pin 2)))
    (net (code 32) (name "Net-(D2-Pad2)")
      (node (ref D2) (pin 2))
      (node (ref R4) (pin 1)))
    (net (code 33) (name "Net-(D5-Pad1)")
      (node (ref D5) (pin 1))
      (node (ref R5) (pin 2)))
    (net (code 34) (name "Net-(D5-Pad2)")
      (node (ref D5) (pin 2))
      (node (ref D8) (pin 2)))
    (net (code 35) (name "Net-(D4-Pad1)")
      (node (ref R1) (pin 2))
      (node (ref D4) (pin 1)))
    (net (code 36) (name "Net-(D4-Pad2)")
      (node (ref D7) (pin 2))
      (node (ref D4) (pin 2)))
    (net (code 37) (name "Net-(D3-Pad1)")
      (node (ref R2) (pin 2))
      (node (ref D3) (pin 1)))
    (net (code 38) (name "Net-(D1-Pad2)")
      (node (ref R3) (pin 1))
      (node (ref D1) (pin 2)))
    (net (code 39) (name "Net-(D3-Pad2)")
      (node (ref D6) (pin 2))
      (node (ref D3) (pin 2)))
    (net (code 40) (name "Net-(IC1-Pad2)")
      (node (ref R10) (pin 1))
      (node (ref IC1) (pin 2)))
    (net (code 41) (name "Net-(C3-Pad1)")
      (node (ref R10) (pin 2))
      (node (ref C3) (pin 1)))
    (net (code 42) (name "Net-(D9-Pad2)")
      (node (ref IC1) (pin 4))
      (node (ref D9) (pin 2))
      (node (ref L1) (pin 1)))
    (net (code 43) (name "Net-(IC1-Pad1)")
      (node (ref R9) (pin 1))
      (node (ref R8) (pin 2))
      (node (ref IC1) (pin 1)))
    (net (code 44) (name "Net-(IC1-Pad3)")
      (node (ref IC1) (pin 3)))
    (net (code 45) (name "Net-(J2-Pad2)")
      (node (ref J2) (pin 2)))
    (net (code 46) (name "Net-(J2-Pad3)")
      (node (ref J2) (pin 3)))
    (net (code 47) (name "Net-(J2-Pad4)")
      (node (ref J2) (pin 4)))
    (net (code 48) (name "Net-(J2-Pad5)")
      (node (ref J2) (pin 5)))
    (net (code 49) (name "Net-(U2-Pad5)")
      (node (ref U2) (pin 5)))
    (net (code 50) (name "Net-(U2-Pad8)")
      (node (ref U2) (pin 8)))
    (net (code 51) (name "Net-(Q2-Pad2)")
      (node (ref Q2) (pin 2))
      (node (ref U1) (pin 7)))
    (net (code 52) (name "Net-(Q2-Pad1)")
      (node (ref Q2) (pin 1))
      (node (ref R11) (pin 1)))
    (net (code 53) (name "Net-(U1-Pad1)")
      (node (ref U1) (pin 1)))
    (net (code 54) (name "Net-(U2-Pad1)")
      (node (ref U2) (pin 1)))
    (net (code 55) (name "Net-(U1-Pad8)")
      (node (ref U1) (pin 8)))
    (net (code 56) (name "Net-(U1-Pad2)")
      (node (ref U1) (pin 2)))))