EESchema Schematic File Version 4
EELAYER 30 0
EELAYER END
$Descr A4 11693 8268
encoding utf-8
Sheet 3 4
Title "Status LED"
Date "3 June 2021"
Rev "1"
Comp "Team 23"
Comment1 ""
Comment2 ""
Comment3 ""
Comment4 ""
$EndDescr
$Comp
L Device:R R5
U 1 1 60B9591D
P 3500 3150
F 0 "R5" H 3570 3196 50  0000 L CNN
F 1 "1000" H 3570 3105 50  0000 L CNN
F 2 "Resistor_THT:R_Axial_DIN0204_L3.6mm_D1.6mm_P5.08mm_Horizontal" V 3430 3150 50  0001 C CNN
F 3 "~" H 3500 3150 50  0001 C CNN
	1    3500 3150
	1    0    0    -1  
$EndComp
$Comp
L Device:R R1
U 1 1 60B9662E
P 4500 3150
F 0 "R1" H 4570 3196 50  0000 L CNN
F 1 "10" H 4570 3105 50  0000 L CNN
F 2 "Resistor_THT:R_Axial_DIN0204_L3.6mm_D1.6mm_P5.08mm_Horizontal" V 4430 3150 50  0001 C CNN
F 3 "~" H 4500 3150 50  0001 C CNN
	1    4500 3150
	1    0    0    -1  
$EndComp
$Comp
L Device:R R2
U 1 1 60B96AF8
P 5500 3150
F 0 "R2" H 5570 3196 50  0000 L CNN
F 1 "1000" H 5570 3105 50  0000 L CNN
F 2 "Resistor_THT:R_Axial_DIN0204_L3.6mm_D1.6mm_P5.08mm_Horizontal" V 5430 3150 50  0001 C CNN
F 3 "~" H 5500 3150 50  0001 C CNN
	1    5500 3150
	1    0    0    -1  
$EndComp
$Comp
L Device:R R3
U 1 1 60B96FD3
P 6500 3150
F 0 "R3" H 6430 3104 50  0000 R CNN
F 1 "1000" H 6430 3195 50  0000 R CNN
F 2 "Resistor_THT:R_Axial_DIN0204_L3.6mm_D1.6mm_P5.08mm_Horizontal" V 6430 3150 50  0001 C CNN
F 3 "~" H 6500 3150 50  0001 C CNN
	1    6500 3150
	-1   0    0    1   
$EndComp
$Comp
L Diode:BZX84Cxx D5
U 1 1 60B9754C
P 3500 4150
F 0 "D5" V 3454 4230 50  0000 L CNN
F 1 "BZX84Cxx" V 3545 4230 50  0000 L CNN
F 2 "Diode_SMD:D_SOT-23_ANK" H 3500 3975 50  0001 C CNN
F 3 "https://diotec.com/tl_files/diotec/files/pdf/datasheets/bzx84c2v4.pdf" H 3500 4150 50  0001 C CNN
	1    3500 4150
	0    1    1    0   
$EndComp
$Comp
L Device:LED D8
U 1 1 60B97F11
P 3500 5150
F 0 "D8" V 3447 5230 50  0000 L CNN
F 1 "LED" V 3538 5230 50  0000 L CNN
F 2 "LED_THT:LED_D3.0mm_IRBlack" H 3500 5150 50  0001 C CNN
F 3 "~" H 3500 5150 50  0001 C CNN
	1    3500 5150
	0    -1   -1   0   
$EndComp
$Comp
L Device:LED D7
U 1 1 60B98E12
P 4500 5150
F 0 "D7" V 4447 5230 50  0000 L CNN
F 1 "LED" V 4538 5230 50  0000 L CNN
F 2 "LED_THT:LED_D3.0mm_IRBlack" H 4500 5150 50  0001 C CNN
F 3 "~" H 4500 5150 50  0001 C CNN
	1    4500 5150
	0    -1   -1   0   
$EndComp
$Comp
L Device:LED D6
U 1 1 60B99743
P 5500 5150
F 0 "D6" V 5447 5230 50  0000 L CNN
F 1 "LED" V 5538 5230 50  0000 L CNN
F 2 "LED_THT:LED_D3.0mm_IRBlack" H 5500 5150 50  0001 C CNN
F 3 "~" H 5500 5150 50  0001 C CNN
	1    5500 5150
	0    -1   -1   0   
$EndComp
$Comp
L Device:D_Zener D4
U 1 1 60B9B440
P 4500 4150
F 0 "D4" V 4454 4230 50  0000 L CNN
F 1 "D_Zener" V 4545 4230 50  0000 L CNN
F 2 "Diode_THT:D_DO-34_SOD68_P2.54mm_Vertical_AnodeUp" H 4500 4150 50  0001 C CNN
F 3 "~" H 4500 4150 50  0001 C CNN
	1    4500 4150
	0    1    1    0   
$EndComp
$Comp
L Device:D_Zener D3
U 1 1 60B9BF81
P 5500 4150
F 0 "D3" V 5454 4230 50  0000 L CNN
F 1 "D_Zener" V 5545 4230 50  0000 L CNN
F 2 "Diode_THT:D_DO-34_SOD68_P2.54mm_Vertical_AnodeUp" H 5500 4150 50  0001 C CNN
F 3 "~" H 5500 4150 50  0001 C CNN
	1    5500 4150
	0    1    1    0   
$EndComp
$Comp
L Device:LED D1
U 1 1 60B9CC9C
P 6500 4150
F 0 "D1" V 6539 4032 50  0000 R CNN
F 1 "LED" V 6448 4032 50  0000 R CNN
F 2 "LED_THT:LED_D3.0mm_IRBlack" H 6500 4150 50  0001 C CNN
F 3 "~" H 6500 4150 50  0001 C CNN
	1    6500 4150
	0    -1   -1   0   
$EndComp
$Comp
L Device:R R4
U 1 1 60B9D9ED
P 6500 5150
F 0 "R4" H 6430 5104 50  0000 R CNN
F 1 "1000" H 6430 5195 50  0000 R CNN
F 2 "Resistor_THT:R_Axial_DIN0204_L3.6mm_D1.6mm_P5.08mm_Horizontal" V 6430 5150 50  0001 C CNN
F 3 "~" H 6500 5150 50  0001 C CNN
	1    6500 5150
	-1   0    0    1   
$EndComp
$Comp
L Device:LED D2
U 1 1 60B9DF3D
P 6500 6150
F 0 "D2" V 6539 6032 50  0000 R CNN
F 1 "LED" V 6448 6032 50  0000 R CNN
F 2 "LED_THT:LED_D3.0mm_IRBlack" H 6500 6150 50  0001 C CNN
F 3 "~" H 6500 6150 50  0001 C CNN
	1    6500 6150
	0    -1   -1   0   
$EndComp
Text GLabel 3500 7000 3    50   Input ~ 0
GND
Wire Wire Line
	3500 3300 3500 4000
Wire Wire Line
	3500 4300 3500 5000
Wire Wire Line
	3500 5300 3500 6500
Wire Wire Line
	4500 3300 4500 4000
Wire Wire Line
	4500 6500 3500 6500
Wire Wire Line
	4500 5300 4500 6500
Wire Wire Line
	4500 4300 4500 5000
Connection ~ 3500 6500
Wire Wire Line
	3500 6500 3500 7000
Wire Wire Line
	5500 6500 4500 6500
Wire Wire Line
	5500 3300 5500 4000
Wire Wire Line
	5500 5300 5500 6500
Wire Wire Line
	5500 4300 5500 5000
Connection ~ 4500 6500
Wire Wire Line
	6500 3300 6500 4000
Wire Wire Line
	6500 4300 6500 4600
Wire Wire Line
	6500 5300 6500 6000
Wire Wire Line
	6500 6300 6500 6500
Wire Wire Line
	6500 6500 5500 6500
Connection ~ 5500 6500
Text HLabel 5500 3000 1    50   Input ~ 0
GPIO21
Wire Wire Line
	6500 2900 6500 3000
Wire Wire Line
	3500 2850 3500 3000
Wire Wire Line
	4500 2850 4500 3000
Text HLabel 3500 2850 1    50   Input ~ 0
GPIO3_SCL1
Text HLabel 6500 2900 1    50   Input ~ 0
GPIO17_GEN0
Text HLabel 4500 2850 1    50   Input ~ 0
GPIO13
Text HLabel 6800 4600 2    50   Input ~ 0
GPIO5
Wire Wire Line
	6800 4600 6500 4600
Connection ~ 6500 4600
Wire Wire Line
	6500 4600 6500 5000
$EndSCHEMATC
