EESchema Schematic File Version 4
EELAYER 30 0
EELAYER END
$Descr A4 11693 8268
encoding utf-8
Sheet 4 4
Title "Switching_Regulator"
Date "3 June 2021"
Rev "1"
Comp "Team 23"
Comment1 ""
Comment2 ""
Comment3 ""
Comment4 ""
$EndDescr
$Comp
L Assignment3.1-rescue:LT1076*-LT1076_-Assignment3.1-rescue IC1
U 1 1 60BA8F6F
P 4800 3950
AR Path="/60BA8F6F" Ref="IC1"  Part="1" 
AR Path="/60BA64D8/60BA8F6F" Ref="IC1"  Part="1" 
F 0 "IC1" H 4800 4320 50  0000 C CNN
F 1 "LT1076*" H 4800 4229 50  0000 C CNN
F 2 "lib2:DDPAK-5_Q" H 4800 3950 50  0001 C CNN
F 3 "" H 4800 3950 50  0001 L BNN
	1    4800 3950
	1    0    0    -1  
$EndComp
$Comp
L pspice:INDUCTOR L1
U 1 1 60BAA7A4
P 5900 3850
F 0 "L1" H 5900 4065 50  0000 C CNN
F 1 "100u" H 5900 3974 50  0000 C CNN
F 2 "Inductor_THT:L_Axial_L5.3mm_D2.2mm_P7.62mm_Horizontal_Vishay_IM-1" H 5900 3850 50  0001 C CNN
F 3 "~" H 5900 3850 50  0001 C CNN
	1    5900 3850
	1    0    0    -1  
$EndComp
$Comp
L pspice:DIODE D9
U 1 1 60BABCBD
P 5500 4200
F 0 "D9" V 5546 4072 50  0000 R CNN
F 1 "DIODE" V 5455 4072 50  0000 R CNN
F 2 "Diode_THT:D_DO-15_P2.54mm_Vertical_AnodeUp" H 5500 4200 50  0001 C CNN
F 3 "~" H 5500 4200 50  0001 C CNN
	1    5500 4200
	0    -1   -1   0   
$EndComp
$Comp
L Device:R R8
U 1 1 60BACC63
P 6500 4150
F 0 "R8" H 6570 4196 50  0000 L CNN
F 1 "2800" H 6570 4105 50  0000 L CNN
F 2 "Resistor_THT:R_Axial_DIN0204_L3.6mm_D1.6mm_P5.08mm_Horizontal" V 6430 4150 50  0001 C CNN
F 3 "~" H 6500 4150 50  0001 C CNN
	1    6500 4150
	1    0    0    -1  
$EndComp
$Comp
L Device:R R9
U 1 1 60BAD8AD
P 6500 5150
F 0 "R9" H 6570 5196 50  0000 L CNN
F 1 "2210" H 6570 5105 50  0000 L CNN
F 2 "Resistor_THT:R_Axial_DIN0204_L3.6mm_D1.6mm_P5.08mm_Horizontal" V 6430 5150 50  0001 C CNN
F 3 "~" H 6500 5150 50  0001 C CNN
	1    6500 5150
	1    0    0    -1  
$EndComp
$Comp
L pspice:CAP C1
U 1 1 60BAEABE
P 7150 4650
F 0 "C1" H 7328 4696 50  0000 L CNN
F 1 "500u" H 7328 4605 50  0000 L CNN
F 2 "Capacitor_THT:CP_Radial_Tantal_D4.5mm_P2.50mm" H 7150 4650 50  0001 C CNN
F 3 "~" H 7150 4650 50  0001 C CNN
	1    7150 4650
	1    0    0    -1  
$EndComp
$Comp
L Device:R R6
U 1 1 60BB01DB
P 8000 4150
F 0 "R6" H 8070 4196 50  0000 L CNN
F 1 "1700" H 8070 4105 50  0000 L CNN
F 2 "Resistor_THT:R_Axial_DIN0204_L3.6mm_D1.6mm_P5.08mm_Horizontal" V 7930 4150 50  0001 C CNN
F 3 "~" H 8000 4150 50  0001 C CNN
	1    8000 4150
	1    0    0    -1  
$EndComp
$Comp
L Device:R R7
U 1 1 60BB0E2F
P 8000 5150
F 0 "R7" H 8070 5196 50  0000 L CNN
F 1 "3300" H 8070 5105 50  0000 L CNN
F 2 "Resistor_THT:R_Axial_DIN0204_L3.6mm_D1.6mm_P5.08mm_Horizontal" V 7930 5150 50  0001 C CNN
F 3 "~" H 8000 5150 50  0001 C CNN
	1    8000 5150
	1    0    0    -1  
$EndComp
$Comp
L pspice:CAP C2
U 1 1 60BB4435
P 4000 4750
F 0 "C2" H 4178 4796 50  0000 L CNN
F 1 "200u" H 4178 4705 50  0000 L CNN
F 2 "Capacitor_THT:CP_Radial_D4.0mm_P1.50mm" H 4000 4750 50  0001 C CNN
F 3 "~" H 4000 4750 50  0001 C CNN
	1    4000 4750
	1    0    0    -1  
$EndComp
$Comp
L Device:R R10
U 1 1 60BB5A0F
P 4900 4850
F 0 "R10" H 4970 4896 50  0000 L CNN
F 1 "2700" H 4970 4805 50  0000 L CNN
F 2 "Resistor_THT:R_Axial_DIN0204_L3.6mm_D1.6mm_P5.08mm_Horizontal" V 4830 4850 50  0001 C CNN
F 3 "~" H 4900 4850 50  0001 C CNN
	1    4900 4850
	1    0    0    -1  
$EndComp
$Comp
L pspice:CAP C3
U 1 1 60BB65DD
P 4900 5500
F 0 "C3" H 5078 5546 50  0000 L CNN
F 1 "0.01u" H 5078 5455 50  0000 L CNN
F 2 "Capacitor_THT:CP_Radial_D4.0mm_P1.50mm" H 4900 5500 50  0001 C CNN
F 3 "~" H 4900 5500 50  0001 C CNN
	1    4900 5500
	1    0    0    -1  
$EndComp
Wire Wire Line
	5200 3850 5500 3850
Wire Wire Line
	6150 3850 6500 3850
Wire Wire Line
	6500 5000 6500 4750
Wire Wire Line
	6500 4000 6500 3850
Connection ~ 6500 3850
Wire Wire Line
	6500 3850 7150 3850
Wire Wire Line
	7150 4400 7150 3850
Connection ~ 7150 3850
Wire Wire Line
	7150 3850 8000 3850
Wire Wire Line
	8000 5000 8000 4750
Wire Wire Line
	8000 4000 8000 3850
Connection ~ 8000 3850
Wire Wire Line
	5500 4000 5500 3850
Connection ~ 5500 3850
Wire Wire Line
	5500 3850 5650 3850
Wire Wire Line
	4900 5250 4900 5000
Wire Wire Line
	4900 4700 4900 4350
Text GLabel 5500 6500 3    50   Input ~ 0
GND
Wire Wire Line
	6500 5300 6500 6000
Wire Wire Line
	6500 6000 5500 6000
Connection ~ 5500 6000
Wire Wire Line
	5500 6000 5500 4400
Wire Wire Line
	7150 4900 7150 6000
Wire Wire Line
	7150 6000 6500 6000
Connection ~ 6500 6000
Wire Wire Line
	8000 5300 8000 6000
Wire Wire Line
	8000 6000 7150 6000
Connection ~ 7150 6000
Wire Wire Line
	4900 5750 4900 6000
Wire Wire Line
	4900 6000 5500 6000
Wire Wire Line
	4400 3850 4000 3850
Wire Wire Line
	4000 3850 4000 4500
Wire Wire Line
	4000 6000 4900 6000
Wire Wire Line
	4000 5000 4000 6000
Connection ~ 4900 6000
Wire Wire Line
	6500 4750 5200 4750
Wire Wire Line
	5200 4750 5200 3950
Connection ~ 6500 4750
Wire Wire Line
	6500 4750 6500 4300
Wire Wire Line
	9150 3850 9150 4250
Wire Wire Line
	9150 4250 8900 4250
NoConn ~ 4700 4350
$Comp
L Connector:USB_B J2
U 1 1 60BCAD60
P 3100 4050
F 0 "J2" H 3157 4517 50  0000 C CNN
F 1 "USB_B" H 3157 4426 50  0000 C CNN
F 2 "Connector_USB:USB3_A_Molex_48393-001" H 3250 4000 50  0001 C CNN
F 3 " ~" H 3250 4000 50  0001 C CNN
	1    3100 4050
	1    0    0    -1  
$EndComp
Wire Wire Line
	3400 3850 4000 3850
Connection ~ 4000 3850
Text HLabel 8900 4250 0    50   Output ~ 0
GPIO13
Text HLabel 8450 4750 2    50   Output ~ 0
GPIO19
Wire Wire Line
	8000 4750 8450 4750
Connection ~ 8000 4750
Wire Wire Line
	8000 4750 8000 4300
NoConn ~ 3400 4150
NoConn ~ 3400 4050
Wire Wire Line
	5500 6000 5500 6500
NoConn ~ 3000 4450
NoConn ~ 3100 4450
Wire Wire Line
	8000 3850 9150 3850
Text HLabel 4000 3550 1    50   Output ~ 0
GPIO3_SCL1
Wire Wire Line
	4000 3550 4000 3850
$EndSCHEMATC
