
(module CONV_P78A03-0500 (layer F.Cu) (tedit 60BA355A)
  (descr "")
  (fp_text reference REF** (at -2.83425 -5.40264 0) (layer F.SilkS)
    (effects (font (size 1.00327559055 1.00327559055) (thickness 0.015)))
  )
  (fp_text value CONV_P78A03-0500 (at 4.17147 5.379705 0) (layer F.Fab)
    (effects (font (size 1.0027480315 1.0027480315) (thickness 0.015)))
  )
  (fp_line (start 5.85 -4.25) (end 5.85 4.25) (layer F.Fab) (width 0.127))
  (fp_line (start -5.75 4.25) (end -5.75 -4.25) (layer F.Fab) (width 0.127))
  (fp_line (start -5.75 4.25) (end -5.75 -4.25) (layer F.SilkS) (width 0.127))
  (fp_line (start -5.75 -4.25) (end 5.85 -4.25) (layer F.Fab) (width 0.127))
  (fp_line (start -5.75 -4.25) (end 5.85 -4.25) (layer F.SilkS) (width 0.127))
  (fp_line (start 5.85 -4.25) (end 5.85 4.25) (layer F.SilkS) (width 0.127))
  (fp_line (start 5.85 4.25) (end -5.75 4.25) (layer F.Fab) (width 0.127))
  (fp_line (start 5.85 4.25) (end -5.75 4.25) (layer F.SilkS) (width 0.127))
  (fp_circle (center -6.62 2.25) (end -6.42 2.25) (layer F.SilkS) (width 0.4))
  (fp_circle (center -2.54 2.25) (end -2.34 2.25) (layer F.Fab) (width 0.4))
  (fp_line (start -6.0 -4.5) (end 6.1 -4.5) (layer F.CrtYd) (width 0.05))
  (fp_line (start 6.1 -4.5) (end 6.1 4.5) (layer F.CrtYd) (width 0.05))
  (fp_line (start 6.1 4.5) (end -6.0 4.5) (layer F.CrtYd) (width 0.05))
  (fp_line (start -6.0 4.5) (end -6.0 -4.5) (layer F.CrtYd) (width 0.05))
  (pad 1 thru_hole rect (at -2.54 2.25) (size 1.508 1.508) (drill 1.0) (layers *.Cu *.Mask))
  (pad 2 thru_hole circle (at 0.0 2.25) (size 1.508 1.508) (drill 1.0) (layers *.Cu *.Mask))
  (pad 3 thru_hole circle (at 2.54 2.25) (size 1.508 1.508) (drill 1.0) (layers *.Cu *.Mask))
)